{
    "net.satellite-service" : "satellite-1",
    "net.broker-address"    : "tcp://192.168.1.10:4201",
    "net.broker-service"    : "broker-1",
    
    "db.driver"             : "sqlite3",
    "db.data-source"        : "${HOME}/.config/demeter/satellite.sqlite",
    "db.pool-size"          : 1,
    "db.query-files"        : [
        "${HOME}/.config/demeter/common-queries.json"
    ],

    "sensor.list" : [
        {
            "sensor.type" : "temperature",
            "sensor.on"   : true,
            "sensor.trigger" : {
                "trigger.type"  : "time",
                "trigger.value" : 300
            },
            "sensor.connector" : {
                "connector.port" : "/dev/ttyAMA0",
                "connector.baud" : 38400
            }
        }, {
            "sensor.type" : "flow-meter",
            "sensor.on"   : true,
            "sensor.trigger" : { 
                "trigger.type"  : "alarm",
                "trigger.value" : 1
            },
            "sensor.connector" : {
                "connector.port" : "/dev/ttyAMA0",
                "connector.baud" : 38400
            }
        }, {
            "sensor.type" : "conductivity",
            "sensor.on"   : true,
            "sensor.trigger" : { 
                "trigger.type" : "event" 
            },
            "sensor.connector" : {
                "connector.port" : "/dev/ttyAMA0",
                "connector.baud" : 38400
            }
        }, {
            "sensor.type" : "ph",
            "sensor.on"   : true,
            "sensor.trigger" : {
                "trigger.type" : "event"
            }
        }, {
            "sensor.type" : "dissolved-oxygen",
            "sensor.on"   : true,
            "sensor.trigger" : {
                "trigger.type" : "event"
            },
            "sensor.connector" : {
                "connector.port" : "/dev/ttyAMA0",
                "connector.baud" : 38400
            }
        }
    ]
}
